326.212 Final Project: Part 3
…
delays_age <- flights_age %>% 
  group_by(Age) %>% 
  summarize(
    mean_delay = mean(Dep_Delay, na.rm = TRUE),
    counts = n()
  ) %>% 
  filter(
    counts > 5,
    Age >= 0
  ) %>% 
  collect()

delays_age

## # A tibble: 62 x 3
##      Age mean_delay  counts
##    <dbl>      <dbl>   <int>
##  1     0       8.48  590203
##  2     1       8.10 1693180
##  3     2       7.94 2202601
##  4     3       8.10 2619650
##  5     4       8.50 2866194
##  6     5       8.61 2979660
##  7     6       8.89 3051755
##  8     7       9.17 3246217
##  9     8       9.26 3290654
## 10     9       9.24 3405741
## #  with 52 more rows
…
It seems that the trend of graph is almost the same. Actually, the model does not explain the data well. We can conclude that older airplanes tend to suffer more delays given that the ages under about 20 years. The difference is at most about 3 minutes in average (between newborn airplanes and 20 year old airplanes).

Now lets look at the flights with airplanes older than 20 years, to deal with the first question.

delays_age %>% 
  filter(Age > 20)

## # A tibble: 41 x 3
##      Age mean_delay  counts
##    <dbl>      <dbl>   <int>
##  1    21      10.0  1322418
##  2    22       9.59 1155038
##  3    23       9.07 1000100
##  4    24       8.77  800685
##  5    25       9.10  643198
##  6    26       9.04  545818
##  7    27       8.96  419954
##  8    28       8.75  306796
##  9    29       8.95  206523
## 10    30       9.10  135923
## #  with 31 more rows
…
