326.212 Final Project: Part 2
…
airportcounts <- flights %>% 
  filter(Dest %in% airports_list) %>% 
  group_by(Year, Month, Dest) %>% 
  summarize(counts = n()) %>% 
  collect()

airportcounts

## # A tibble: 648 x 4
## # Groups:   Year, Month [216]
##     Year Month Dest  counts
##    <dbl> <dbl> <chr>  <int>
##  1  2001     1 SJC     6321
##  2  2001     1 SMF     3325
##  3  2001     1 SNA     3726
##  4  2001     2 SJC     5720
##  5  2001     2 SMF     2930
##  6  2001     2 SNA     3327
##  7  2001     3 SJC     6426
##  8  2001     3 SMF     3342
##  9  2001     3 SNA     3676
## 10  2001     4 SJC     6202
## #  with 638 more rows
…
airportcounts <- airportcounts %>%
  ungroup() %>% 
  mutate(
    Date = date(str_c(Year, Month, "1", sep = "-"))
  ) %>% 
  select(
    Date, Dest, counts
  ) %>% 
  arrange(
    Date
  )
airportcounts

## # A tibble: 648 x 3
##    Date       Dest  counts
##    <date>     <chr>  <int>
##  1 2001-01-01 SJC     6321
##  2 2001-01-01 SMF     3325
##  3 2001-01-01 SNA     3726
##  4 2001-02-01 SJC     5720
##  5 2001-02-01 SMF     2930
##  6 2001-02-01 SNA     3327
##  7 2001-03-01 SJC     6426
##  8 2001-03-01 SMF     3342
##  9 2001-03-01 SNA     3676
## 10 2001-04-01 SJC     6202
## #  with 638 more rows
…
delays

## # A tibble: 1,193 x 3
##    Date       Op_Unique_Carrier mean_delay
##    <date>     <chr>                  <dbl>
##  1 2015-01-01 AA                    120.  
##  2 2015-01-01 DL                    -12.5 
##  3 2015-01-01 MQ                      2.33
##  4 2015-01-02 AA                    -10.5 
##  5 2015-01-02 DL                     -1   
##  6 2015-01-02 MQ                      3.33
##  7 2015-01-03 AA                    124.  
##  8 2015-01-03 DL                     48.5 
##  9 2015-01-03 MQ                     20   
## 10 2015-01-04 AA                    101.  
## #  with 1,183 more rows
…
flights_2001

## # A tibble: 53 x 3
##    Date       counts cancelled
##    <date>      <int>     <dbl>
##  1 2001-01-01  16081      1190
##  2 2001-01-08  17491       506
##  3 2001-01-15  17510       664
##  4 2001-01-22  17534       428
##  5 2001-01-29  17533      1165
##  6 2001-02-05  17473      1599
##  7 2001-02-12  17472       548
##  8 2001-02-19  17343       294
##  9 2001-02-26  17543       502
## 10 2001-03-05  17570      2821
## #  with 43 more rows
…
flights_2011

## # A tibble: 52 x 3
##    Date       counts cancelled
##    <date>      <int>     <dbl>
##  1 2011-01-03  17381       146
##  2 2011-01-10  16743      2761
##  3 2011-01-17  16652       563
##  4 2011-01-24  16695       186
##  5 2011-01-31  16698       587
##  6 2011-02-07  16881       363
##  7 2011-02-14  16817       189
##  8 2011-02-21  17157       741
##  9 2011-02-28  17261       475
## 10 2011-03-07  17420       264
## #  with 42 more rows
…
