HW4
…
P2

daily <- nycflights13::flights %>% 
  mutate(
    date = make_date(year, month, day)
  ) %>% 
  group_by(date) %>% 
  summarize(n = n()) %>% 
  mutate(
    wday = wday(date, label = TRUE)
  )
daily

## # A tibble: 365 x 3
##    date           n wday 
##    <date>     <int> <ord>
##  1 2013-01-01   842 Tue  
##  2 2013-01-02   943 Wed  
##  3 2013-01-03   914 Thu  
##  4 2013-01-04   915 Fri  
##  5 2013-01-05   720 Sat  
##  6 2013-01-06   832 Sun  
##  7 2013-01-07   933 Mon  
##  8 2013-01-08   899 Tue  
##  9 2013-01-09   902 Wed  
## 10 2013-01-10   932 Thu  
## #  with 355 more rows
…
  return(
    list(lines_summary, plot)
  )
}

lines <- random_lines(1000, 10, 10)
lines[1] # Summary table

## [[1]]
## # A tibble: 1,000 x 8
##       id     x     y angle x.left y.left x.right y.right
##    <int> <dbl> <dbl> <dbl>  <dbl>  <dbl>   <dbl>   <dbl>
##  1     1 7.37   7.36  80.6  7.13    7.28   7.60     7.44
##  2     2 8.00   1.73 139.   8.24    1.64   7.77     1.82
##  3     3 3.04   9.64  80.2  2.87    9.82   3.22     9.46
##  4     4 0.115  7.96 144.  -0.133   7.99   0.364    7.94
##  5     5 5.77   5.21 141.   5.87    4.98   5.68     5.44
##  6     6 6.24   5.79 147.   6.46    5.67   6.02     5.92
##  7     7 2.91   7.68  31.3  3.13    7.56   2.68     7.79
##  8     8 2.90   8.66  97.4  3.13    8.58   2.66     8.74
##  9     9 2.42   4.69  46.8  2.30    4.48   2.55     4.91
## 10    10 1.66   9.42 163.   1.44    9.30   1.88     9.53
## #  with 990 more rows
…
