HW3
…
nycflights13::flights %>% 
  left_join(
    nycflights13::airports,
    by = c("origin" = "faa")
  ) %>%
  left_join(
    nycflights13::airports,
    by = c("dest" = "faa"),
    suffix = c("_origin", "_dest")
  ) %>% 
  select(
    year, month, day, sched_dep_time, origin, lat_origin, lon_origin, dest, lat_dest, lon_dest
  )

## # A tibble: 336,776 x 10
##     year month   day sched_dep_time origin lat_origin lon_origin dest 
##    <int> <int> <int>          <int> <chr>       <dbl>      <dbl> <chr>
##  1  2013     1     1            515 EWR          40.7      -74.2 IAH  
##  2  2013     1     1            529 LGA          40.8      -73.9 IAH  
##  3  2013     1     1            540 JFK          40.6      -73.8 MIA  
##  4  2013     1     1            545 JFK          40.6      -73.8 BQN  
##  5  2013     1     1            600 LGA          40.8      -73.9 ATL  
##  6  2013     1     1            558 EWR          40.7      -74.2 ORD  
##  7  2013     1     1            600 EWR          40.7      -74.2 FLL  
##  8  2013     1     1            600 LGA          40.8      -73.9 IAD  
##  9  2013     1     1            600 JFK          40.6      -73.8 MCO  
## 10  2013     1     1            600 LGA          40.8      -73.9 ORD  
## #  with 336,766 more rows, and 2 more variables: lat_dest <dbl>,
## #   lon_dest <dbl>
…
babynames::babynames %>% 
  group_by(year, sex, name) %>% 
  summarize(n = n()) %>% 
  filter(n > 1)

## # A tibble: 0 x 4
## # Groups:   year, sex [0]
## #  with 4 variables: year <dbl>, sex <chr>, name <chr>, n <int>

babynames::babynames: (year, sex, name)

nasaweather::atmos

## # A tibble: 41,472 x 11
##      lat  long  year month surftemp  temp pressure ozone cloudlow cloudmid
##    <dbl> <dbl> <int> <int>    <dbl> <dbl>    <dbl> <dbl>    <dbl>    <dbl>
##  1  36.2 -114.  1995     1     273.  272.      835   304      7.5     34.5
##  2  33.7 -114.  1995     1     280.  282.      940   304     11.5     32.5
##  3  31.2 -114.  1995     1     285.  285.      960   298     16.5     26  
##  4  28.7 -114.  1995     1     289.  291.      990   276     20.5     14.5
##  5  26.2 -114.  1995     1     292.  293.     1000   274     26       10.5
##  6  23.7 -114.  1995     1     294.  294.     1000   264     30        9.5
##  7  21.2 -114.  1995     1     295   295.     1000   258     29.5     11  
##  8  18.7 -114.  1995     1     298.  297.     1000   252     26.5     17.5
##  9  16.2 -114.  1995     1     300.  298.     1000   250     27.5     18.5
## 10  13.7 -114.  1995     1     300.  299.     1000   250     26       16.5
## #  with 41,462 more rows, and 1 more variable: cloudhigh <dbl>
…
## # A tibble: 0 x 2
## #  with 2 variables: id <int>, n <int>

(id)

ggplot2::diamonds %>% 
  group_by(carat, cut, color, clarity, depth, table, price, x, y, z) %>% 
  summarize(n = n()) %>% 
  filter(n > 1)

## # A tibble: 143 x 11
## # Groups:   carat, cut, color, clarity, depth, table, price, x, y [143]
##    carat cut       color clarity depth table price     x     y     z     n
##    <dbl> <ord>     <ord> <ord>   <dbl> <dbl> <int> <dbl> <dbl> <dbl> <int>
##  1  0.3  Good      J     VS1      63.4    57   394  4.23  4.26  2.69     2
##  2  0.3  Very Good G     VS2      63      55   526  4.29  4.31  2.71     2
##  3  0.3  Very Good J     VS1      63.4    57   506  4.26  4.23  2.69     2
##  4  0.3  Premium   D     SI1      62.2    58   709  4.31  4.28  2.67     2
##  5  0.3  Ideal     G     VS2      63      55   675  4.31  4.29  2.71     2
##  6  0.3  Ideal     G     IF       62.1    55   863  4.32  4.35  2.69     2
##  7  0.3  Ideal     H     SI1      62.2    57   450  4.26  4.29  2.66     2
##  8  0.3  Ideal     H     SI1      62.2    57   450  4.27  4.28  2.66     2
##  9  0.31 Good      D     SI1      63.5    56   571  4.29  4.31  2.73     2
## 10  0.31 Very Good D     SI1      63.5    56   732  4.31  4.29  2.73     2
## #  with 133 more rows
…
There is a mean increase of delay as the age of plane increases from 0 to about 10. But then the mean delay increases as planes get older than 10.

13.5.1

1

nycflights13::flights %>% 
  filter(is.na(tailnum))

## # A tibble: 2,512 x 19
##     year month   day dep_time sched_dep_time dep_delay arr_time
##    <int> <int> <int>    <int>          <int>     <dbl>    <int>
##  1  2013     1     2       NA           1545        NA       NA
##  2  2013     1     2       NA           1601        NA       NA
##  3  2013     1     3       NA            857        NA       NA
##  4  2013     1     3       NA            645        NA       NA
##  5  2013     1     4       NA            845        NA       NA
##  6  2013     1     4       NA           1830        NA       NA
##  7  2013     1     5       NA            840        NA       NA
##  8  2013     1     7       NA            820        NA       NA
##  9  2013     1     8       NA           1645        NA       NA
## 10  2013     1     9       NA            755        NA       NA
## #  with 2,502 more rows, and 12 more variables: sched_arr_time <int>,
## #   arr_delay <dbl>, carrier <chr>, flight <int>, tailnum <chr>,
## #   origin <chr>, dest <chr>, air_time <dbl>, distance <dbl>, hour <dbl>,
## #   minute <dbl>, time_hour <dttm>
…
These words has the highest number of vowels with 5.

word_vowels %>% arrange(-vowel_prop)

## # A tibble: 980 x 4
##    word   vowels length vowel_prop
##    <chr>   <int>  <int>      <dbl>
##  1 a           1      1      1    
##  2 area        3      4      0.75 
##  3 idea        3      4      0.75 
##  4 age         2      3      0.667
##  5 ago         2      3      0.667
##  6 air         2      3      0.667
##  7 die         2      3      0.667
##  8 due         2      3      0.667
##  9 eat         2      3      0.667
## 10 europe      4      6      0.667
## #  with 970 more rows
…
